{
    "version": "1.0.0",
    "plays": [],
    "stdout": [
        "\u001b[1;35m[WARNING]: Unable to parse /home/student07/builder/inventory as an inventory\u001b[0m",
        "\u001b[1;35msource\u001b[0m",
        "\u001b[1;35m[WARNING]: No inventory was parsed, only implicit localhost is available\u001b[0m",
        "\u001b[1;35m[WARNING]: provided hosts list is empty, only localhost is available. Note that\u001b[0m",
        "\u001b[1;35mthe implicit localhost does not match 'all'\u001b[0m",
        "\u001b[0;31mERROR! 'host' is not a valid attribute for a Play\u001b[0m",
        "\u001b[0;31m\u001b[0m",
        "\u001b[0;31mThe error appears to be in '/home/student07/builder/playbook.yml': line 2, column 3, but may\u001b[0m",
        "\u001b[0;31mbe elsewhere in the file depending on the exact syntax problem.\u001b[0m",
        "\u001b[0;31m\u001b[0m",
        "\u001b[0;31mThe offending line appears to be:\u001b[0m",
        "\u001b[0;31m\u001b[0m",
        "\u001b[0;31m---\u001b[0m",
        "\u001b[0;31m- host: localhost\u001b[0m",
        "\u001b[0;31m  ^ here\u001b[0m"
    ],
    "status": "failed",
    "status_color": 9
}